{
  "checker_daily" : {
    "7l1QZyCIkFRoD6l0zbTldTi6zAx2" : {
      "11-06-2018" : {
        "-LEjTbdljk0bbIBGSw4o" : {
          "check_in_date" : "11-06-2018, 19:32",
          "check_in_image_url" : "https://firebasestorage.googleapis.com/v0/b/workertracker-ed2f5.appspot.com/o/sinan%40gmail.com%2F1528731168361.jpg?alt=media&token=d865256e-38b2-4447-bf5d-f06789bc0ead",
          "check_in_location" : "40.39141, 49.8057407",
          "check_out_date" : "11-06-2018, 19:33",
          "check_out_image_url" : "https://firebasestorage.googleapis.com/v0/b/workertracker-ed2f5.appspot.com/o/sinan%40gmail.com%2F1528731184250.jpg?alt=media&token=f121ea4c-836d-4e53-9e7f-2a3ffc6c85cf",
          "check_out_location" : "40.39141, 49.8057407",
          "check_out_note" : ""
        },
        "-LEjThrpTipO6K0FO6lC" : {
          "check_in_date" : "11-06-2018, 19:33",
          "check_in_image_url" : "https://firebasestorage.googleapis.com/v0/b/workertracker-ed2f5.appspot.com/o/sinan%40gmail.com%2F1528731194715.jpg?alt=media&token=9d0410b6-241d-4544-ab8a-04a9233aa99a",
          "check_in_location" : "40.39141, 49.8057407",
          "check_out_date" : "11-06-2018, 19:33",
          "check_out_image_url" : "https://firebasestorage.googleapis.com/v0/b/workertracker-ed2f5.appspot.com/o/sinan%40gmail.com%2F1528731209788.jpg?alt=media&token=cfb904de-e5c3-4ce1-918e-97019f00b7b4",
          "check_out_location" : "40.39141, 49.8057407",
          "check_out_note" : ""
        },
        "-LEjTn7ow-63s6l2ZebN" : {
          "check_in_date" : "11-06-2018, 19:33",
          "check_in_image_url" : "https://firebasestorage.googleapis.com/v0/b/workertracker-ed2f5.appspot.com/o/sinan%40gmail.com%2F1528731216648.jpg?alt=media&token=2aef6e17-df93-4d82-9bc0-857dd3646517",
          "check_in_location" : "40.39141, 49.8057407",
          "check_out_date" : "11-06-2018, 19:33",
          "check_out_image_url" : "https://firebasestorage.googleapis.com/v0/b/workertracker-ed2f5.appspot.com/o/sinan%40gmail.com%2F1528731223308.jpg?alt=media&token=088afe6b-62fa-4797-b1ad-d89a5fc0df7f",
          "check_out_location" : "40.39141, 49.8057407",
          "check_out_note" : "Hshshshjs"
        },
        "-LEjTwPvnkM-bETBxjXQ" : {
          "check_in_date" : "11-06-2018, 19:34",
          "check_in_image_url" : "https://firebasestorage.googleapis.com/v0/b/workertracker-ed2f5.appspot.com/o/sinan@gmail.com%2F1528731252808.jpg?alt=media&token=8885cb5a-7fbf-4640-9165-328ad5b93313",
          "check_in_location" : "37.33233141, -122.0312186",
          "check_out_date" : "11-06-2018, 19:34",
          "check_out_image_url" : "https://firebasestorage.googleapis.com/v0/b/workertracker-ed2f5.appspot.com/o/sinan@gmail.com%2F1528731273436.jpg?alt=media&token=f02a04a9-0700-4c8b-86a7-ca640b97c9b9",
          "check_out_location" : "37.33233141, -122.0312186",
          "check_out_note" : "Asdasdasd"
        }
      },
      "12-06-2018" : {
        "-LEnyjnDaf3-2inwx8ax" : {
          "check_in_date" : "12-06-2018, 16:31",
          "check_in_image_url" : "https://firebasestorage.googleapis.com/v0/b/workertracker-ed2f5.appspot.com/o/sinan%40gmail.com%2F1528806698381.jpg?alt=media&token=8f0708d9-8bc6-4bd4-87e2-8e1d5d3b8286",
          "check_in_location" : "40.3914553, 49.805847",
          "check_out_date" : "12-06-2018, 16:31",
          "check_out_image_url" : "https://firebasestorage.googleapis.com/v0/b/workertracker-ed2f5.appspot.com/o/sinan%40gmail.com%2F1528806704354.jpg?alt=media&token=67ae8326-3b60-4756-a309-dd3093445b99",
          "check_out_location" : "40.3914553, 49.805847",
          "check_out_note" : ""
        },
        "-LEnymDgk1_geQvnFBHr" : {
          "check_in_date" : "12-06-2018, 16:31",
          "check_in_image_url" : "https://firebasestorage.googleapis.com/v0/b/workertracker-ed2f5.appspot.com/o/sinan%40gmail.com%2F1528806708948.jpg?alt=media&token=afbd8623-8610-4fd4-9ce4-bb41da8e81bc",
          "check_in_location" : "40.3914553, 49.805847",
          "check_out_date" : "12-06-2018, 16:31",
          "check_out_image_url" : "https://firebasestorage.googleapis.com/v0/b/workertracker-ed2f5.appspot.com/o/sinan%40gmail.com%2F1528806715725.jpg?alt=media&token=bbe3be87-2fea-419d-8240-386a4aa535e1",
          "check_out_location" : "40.3914553, 49.805847",
          "check_out_note" : "Hahhshs"
        }
      },
      "13-06-2018" : {
        "-LEsaYbfm2bRxirJYl1g" : {
          "check_in_date" : "13-06-2018, 14:04",
          "check_in_image_url" : "https://firebasestorage.googleapis.com/v0/b/workertracker-ed2f5.appspot.com/o/sinan%40gmail.com%2F1528884242374.jpg?alt=media&token=9bb5688d-728c-4e83-9c7f-aff3b6c14fe9",
          "check_in_location" : "40.3779819, 49.8092592",
          "check_out_date" : "13-06-2018, 14:05",
          "check_out_image_url" : "https://firebasestorage.googleapis.com/v0/b/workertracker-ed2f5.appspot.com/o/sinan%40gmail.com%2F1528884298906.jpg?alt=media&token=c52c4269-6c11-4c5f-b658-7df32a1ca7b5",
          "check_out_location" : "40.3779819, 49.8092592",
          "check_out_note" : ""
        },
        "-LEsaqTePL9doMsQ6oyZ" : {
          "check_in_date" : "13-06-2018, 14:05",
          "check_in_image_url" : "https://firebasestorage.googleapis.com/v0/b/workertracker-ed2f5.appspot.com/o/sinan%40gmail.com%2F1528884322478.jpg?alt=media&token=ba964734-f272-4f30-8aae-52197725a867",
          "check_in_location" : "40.3779819, 49.8092592"
        }
      }
    },
    "gut1ndGZaxcWbe3dsrfdHb4vOQB2" : {
      "12-06-2018" : {
        "-LEnj1zIYk3qMGUE14U3" : {
          "check_in_date" : "12-06-2018, 15:23",
          "check_in_image_url" : "https://firebasestorage.googleapis.com/v0/b/workertracker-ed2f5.appspot.com/o/habiboff@gmail.com%2F1528802583712.jpg?alt=media&token=49826b55-12e1-47d0-b0f0-d5ee41f4e8c8",
          "check_in_location" : "40.391318960661344, 49.804694860817406",
          "check_out_date" : "12-06-2018, 15:23",
          "check_out_image_url" : "https://firebasestorage.googleapis.com/v0/b/workertracker-ed2f5.appspot.com/o/habiboff@gmail.com%2F1528802600952.jpg?alt=media&token=4d705a4f-4b69-443f-8af9-3d6a5d1afb83",
          "check_out_location" : "40.391318960661344, 49.804694860817406",
          "check_out_note" : "Sala"
        },
        "-LEnmJbHRUs6uL8_rkTm" : {
          "check_in_date" : "12-06-2018, 15:37",
          "check_in_image_url" : "https://firebasestorage.googleapis.com/v0/b/workertracker-ed2f5.appspot.com/o/habiboff@gmail.com%2F1528803442283.jpg?alt=media&token=9e953c23-f29b-4159-9824-e93661051e25",
          "check_in_location" : "40.39124957476591, 49.804812078455136"
        }
      }
    },
    "ikcJEq8k9dewDTIrBE5tgchTHq33" : {
      "02-04-2019" : {
        "-LbTLYoWsHbIgtVFRsBT" : {
          "check_in_date" : "02-04-2019, 18:00",
          "check_in_image_url" : "https://firebasestorage.googleapis.com/v0/b/workertracker-ed2f5.appspot.com/o/employee%40mail.com%2F1554213648677.jpg?alt=media&token=27f6b5c1-dadf-408b-aa06-4b5a474530ae",
          "check_in_location" : "40.5245741, 50.0585781"
        }
      },
      "03-04-2019" : {
        "-LbYbIC2agAVYBeLAgeJ" : {
          "check_in_date" : "03-04-2019, 18:32",
          "check_in_image_url" : "https://firebasestorage.googleapis.com/v0/b/workertracker-ed2f5.appspot.com/o/employee%40mail.com%2F1554301919921.jpg?alt=media&token=b53edecd-2f9e-4745-a742-37a8adaf2f13",
          "check_in_location" : "37.4220392, -122.0840284",
          "check_out_date" : "03-04-2019, 18:41",
          "check_out_image_url" : "https://firebasestorage.googleapis.com/v0/b/workertracker-ed2f5.appspot.com/o/employee%40mail.com%2F1554302498945.jpg?alt=media&token=954c890c-f88d-4d99-853c-7234b2179375",
          "check_out_location" : "37.4220392, -122.0840284",
          "check_out_note" : ""
        },
        "-LbYiGMKDQvN4n5C15xg" : {
          "check_in_date" : "03-04-2019, 19:02",
          "check_in_image_url" : "https://firebasestorage.googleapis.com/v0/b/workertracker-ed2f5.appspot.com/o/employee%40mail.com%2F1554303748164.jpg?alt=media&token=dbef97c3-a16b-4d98-8d2a-885728ad1ce9",
          "check_in_location" : "40.3390995, 49.8289029",
          "check_out_date" : "03-04-2019, 19:02",
          "check_out_image_url" : "https://firebasestorage.googleapis.com/v0/b/workertracker-ed2f5.appspot.com/o/employee%40mail.com%2F1554303764759.jpg?alt=media&token=86aa9ec3-35f5-4f9d-9516-82c97922815a",
          "check_out_location" : "40.3390995, 49.8289029",
          "check_out_note" : ""
        },
        "-LbYiqbZwDbTYm6SVBRe" : {
          "check_in_date" : "03-04-2019, 19:05",
          "check_in_image_url" : "https://firebasestorage.googleapis.com/v0/b/workertracker-ed2f5.appspot.com/o/employee%40mail.com%2F1554303900955.jpg?alt=media&token=208246da-86da-422c-8118-0d43688e6c65",
          "check_in_location" : "40.3913774, 49.8049527",
          "check_out_date" : "03-04-2019, 19:31",
          "check_out_image_url" : "https://firebasestorage.googleapis.com/v0/b/workertracker-ed2f5.appspot.com/o/employee%40mail.com%2F1554305478047.jpg?alt=media&token=70c9ee00-2686-40ae-9251-21cf9997dc0e",
          "check_out_location" : "40.3914442, 49.80479",
          "check_out_note" : ""
        },
        "-LbYrt6qQxaRGCCTKU2F" : {
          "check_in_date" : "03-04-2019, 19:44",
          "check_in_image_url" : "https://firebasestorage.googleapis.com/v0/b/workertracker-ed2f5.appspot.com/o/employee%40mail.com%2F1554306270219.jpg?alt=media&token=492d173a-375b-4b80-9939-7b6e240c6457",
          "check_in_location" : "37.4220392, -122.0840284",
          "check_out_date" : "03-04-2019, 19:46",
          "check_out_image_url" : "https://firebasestorage.googleapis.com/v0/b/workertracker-ed2f5.appspot.com/o/employee%40mail.com%2F1554306412341.jpg?alt=media&token=c7de3c96-ae4b-4006-b71d-1338f969c5cc",
          "check_out_location" : "37.4220392, -122.0840284",
          "check_out_note" : ""
        },
        "-LbYslcPjW9Xnts8AE21" : {
          "check_in_date" : "03-04-2019, 19:48",
          "check_in_image_url" : "https://firebasestorage.googleapis.com/v0/b/workertracker-ed2f5.appspot.com/o/employee%40mail.com%2F1554306502139.jpg?alt=media&token=baa5e783-6c49-4565-9741-715b96ce3fae",
          "check_in_location" : "37.4220392, -122.0840284",
          "check_out_date" : "03-04-2019, 19:48",
          "check_out_image_url" : "https://firebasestorage.googleapis.com/v0/b/workertracker-ed2f5.appspot.com/o/employee%40mail.com%2F1554306514404.jpg?alt=media&token=5b0813e1-3abb-4e3e-ae28-80546f8b7961",
          "check_out_location" : "37.4220392, -122.0840284",
          "check_out_note" : ""
        },
        "-LbYubhRH9nd8Als15Ii" : {
          "check_in_date" : "03-04-2019, 19:56",
          "check_in_image_url" : "https://firebasestorage.googleapis.com/v0/b/workertracker-ed2f5.appspot.com/o/employee%40mail.com%2F1554306985620.jpg?alt=media&token=651339be-8fb7-40ea-a9aa-dcc267c27c30",
          "check_in_location" : "40.391299, 49.8058143"
        }
      },
      "04-04-2019" : {
        "-LbbkPsj6lLMzsCYo52l" : {
          "check_in_date" : "04-04-2019, 13:50",
          "check_in_image_url" : "https://firebasestorage.googleapis.com/v0/b/workertracker-ed2f5.appspot.com/o/employee%40mail.com%2F1554371419672.jpg?alt=media&token=fd928921-ceee-44cf-b950-c84f2dda7b8a",
          "check_in_location" : "37.421998333333335, -122.08400000000002",
          "check_out_date" : "04-04-2019, 13:51",
          "check_out_image_url" : "https://firebasestorage.googleapis.com/v0/b/workertracker-ed2f5.appspot.com/o/employee%40mail.com%2F1554371460414.jpg?alt=media&token=3e7296f0-7172-44ca-bc2f-e94f98ebbe66",
          "check_out_location" : "37.421998333333335, -122.08400000000002",
          "check_out_note" : ""
        }
      },
      "12-06-2018" : {
        "-LEnOXUtWfH-ILjJfbU5" : {
          "check_in_date" : "12-06-2018, 13:49",
          "check_in_image_url" : "https://firebasestorage.googleapis.com/v0/b/workertracker-ed2f5.appspot.com/o/employee%40mail.com%2F1528796945426.jpg?alt=media&token=989ecda3-ba4d-4cff-8c19-e5faef3b53ce",
          "check_in_location" : "40.3912074, 49.8029147",
          "check_out_date" : "12-06-2018, 13:50",
          "check_out_image_url" : "https://firebasestorage.googleapis.com/v0/b/workertracker-ed2f5.appspot.com/o/employee%40mail.com%2F1528797019406.jpg?alt=media&token=cacaecbb-46cb-433e-8d67-3c664f37a1ff",
          "check_out_location" : "40.3912074, 49.8029147",
          "check_out_note" : "tst"
        },
        "-LEnP1yHLjC0JU9aGQp5" : {
          "check_in_date" : "12-06-2018, 13:51",
          "check_in_image_url" : "https://firebasestorage.googleapis.com/v0/b/workertracker-ed2f5.appspot.com/o/employee%40mail.com%2F1528797078323.jpg?alt=media&token=9caa62d4-ad42-4452-9bc8-d757c399d11a",
          "check_in_location" : "40.3912074, 49.8029147",
          "check_out_date" : "12-06-2018, 13:53",
          "check_out_image_url" : "https://firebasestorage.googleapis.com/v0/b/workertracker-ed2f5.appspot.com/o/employee%40mail.com%2F1528797225035.jpg?alt=media&token=c5f491e1-747b-46cb-86a9-615200fdcb9e",
          "check_out_location" : "40.3912074, 49.8029147",
          "check_out_note" : "jdjsjddh"
        },
        "-LEnzP57UKk88xtXiQKB" : {
          "check_in_date" : "12-06-2018, 16:34",
          "check_in_image_url" : "https://firebasestorage.googleapis.com/v0/b/workertracker-ed2f5.appspot.com/o/employee%40mail.com%2F1528806873447.jpg?alt=media&token=d6b443ed-1cbd-4946-bb4d-7b42cd27bcb9",
          "check_in_location" : "40.3912765, 49.8055624",
          "check_out_date" : "12-06-2018, 16:37",
          "check_out_image_url" : "https://firebasestorage.googleapis.com/v0/b/workertracker-ed2f5.appspot.com/o/employee%40mail.com%2F1528807066522.jpg?alt=media&token=e1fa85ef-6118-438f-aad6-522e7185651a",
          "check_out_location" : "40.3912765, 49.8055624",
          "check_out_note" : "test"
        }
      },
      "26-12-2018" : {
        "-LUdVqstgQbEyMckMF4Z" : {
          "check_in_date" : "26-12-2018, 11:56",
          "check_in_image_url" : "https://firebasestorage.googleapis.com/v0/b/workertracker-ed2f5.appspot.com/o/employee%40mail.com%2F1545810961292.jpg?alt=media&token=3e28f240-76f3-444d-9b01-60f022ef5d26",
          "check_in_location" : "40.3913081, 49.8050642",
          "check_out_date" : "26-12-2018, 11:56",
          "check_out_image_url" : "https://firebasestorage.googleapis.com/v0/b/workertracker-ed2f5.appspot.com/o/employee%40mail.com%2F1545810971505.jpg?alt=media&token=7df543e2-e496-41b0-8fe3-7f72a3efde31",
          "check_out_location" : "40.3913081, 49.8050642",
          "check_out_note" : "Hsjsj"
        }
      },
      "31-08-2018" : {
        "-LLEl0OwLctHOHMc74Os" : {
          "check_in_date" : "31-08-2018, 15:35",
          "check_in_image_url" : "https://firebasestorage.googleapis.com/v0/b/workertracker-ed2f5.appspot.com/o/employee@mail.com%2F1535715314370.jpg?alt=media&token=6b2e32b2-066c-4c6c-be7f-3f2c0359cb42",
          "check_in_location" : "37.33233141, -122.0312186"
        }
      }
    },
    "jIQfXuQzbXdbUGudpghs5Jy2klm1" : {
      "12-06-2018" : {
        "-LEpw0b5xWkqKBRwczvE" : {
          "check_in_date" : "12-06-2018, 14:39",
          "check_in_image_url" : "https://firebasestorage.googleapis.com/v0/b/workertracker-ed2f5.appspot.com/o/demo@demo.com%2F1528839541435.jpg?alt=media&token=19e10d3c-aa5c-46a5-a2b8-8b5758985c14",
          "check_in_location" : "37.394208081870495, -122.04241063010356",
          "check_out_date" : "12-06-2018, 14:39",
          "check_out_image_url" : "https://firebasestorage.googleapis.com/v0/b/workertracker-ed2f5.appspot.com/o/demo@demo.com%2F1528839549996.jpg?alt=media&token=4d797936-4e86-4ba7-80cc-b138d9b256e7",
          "check_out_location" : "37.394208081870495, -122.04241063010356",
          "check_out_note" : "J"
        }
      }
    }
  },
  "checker_hourly" : {
    "7l1QZyCIkFRoD6l0zbTldTi6zAx2" : {
      "11-06-2018" : {
        "11-06-2018, 17:07" : {
          "date" : "11-06-2018, 17:07",
          "location" : "40.3913077, 49.805812"
        },
        "11-06-2018, 17:15" : {
          "date" : "11-06-2018, 17:15",
          "location" : "40.3913077, 49.805812"
        },
        "11-06-2018, 17:31" : {
          "date" : "11-06-2018, 17:31",
          "location" : "40.3913077, 49.805812"
        },
        "11-06-2018, 17:47" : {
          "date" : "11-06-2018, 17:47",
          "location" : "40.3781053, 49.8089195"
        }
      },
      "13-06-2018" : {
        "13-06-2018, 16:07" : {
          "date" : "13-06-2018, 16:07",
          "location" : "40.3916368, 49.8057265"
        },
        "13-06-2018, 16:29" : {
          "date" : "13-06-2018, 16:30",
          "location" : "47.0515447, 28.8797288"
        },
        "13-06-2018, 16:47" : {
          "date" : "13-06-2018, 16:48",
          "location" : "40.4226131, 49.9183101"
        },
        "13-06-2018, 19:38" : {
          "date" : "13-06-2018, 19:38",
          "location" : "40.5291384, 50.0462752"
        },
        "13-06-2018, 20:00" : {
          "date" : "13-06-2018, 20:00",
          "location" : "40.5291293, 50.045741"
        }
      },
      "24-05-2018" : {
        "24-05-2018, 14:43" : {
          "date" : "24-05-2018, 14:43",
          "location" : "40.40677, 49.8065571"
        },
        "24-05-2018, 14:50" : {
          "date" : "24-05-2018, 14:50",
          "location" : "40.433808, 49.7816991"
        },
        "24-05-2018, 15:05" : {
          "date" : "24-05-2018, 15:05",
          "location" : "40.4761155, 49.7270154"
        },
        "24-05-2018, 15:13" : {
          "date" : "24-05-2018, 15:13",
          "location" : "40.4760761, 49.7270062"
        },
        "24-05-2018, 15:28" : {
          "date" : "24-05-2018, 15:28",
          "location" : "40.4759088, 49.7270907"
        },
        "24-05-2018, 15:43" : {
          "date" : "24-05-2018, 15:43",
          "location" : "40.4760761, 49.7270062"
        },
        "24-05-2018, 15:51" : {
          "date" : "24-05-2018, 15:51",
          "location" : "40.4760761, 49.7270062"
        },
        "24-05-2018, 15:58" : {
          "date" : "24-05-2018, 15:58",
          "location" : "40.4760761, 49.7270062"
        },
        "24-05-2018, 16:29" : {
          "date" : "24-05-2018, 16:29",
          "location" : "40.4755539, 49.727073"
        },
        "24-05-2018, 16:55" : {
          "date" : "24-05-2018, 16:55",
          "location" : "40.4754811, 49.7271917"
        },
        "24-05-2018, 17:10" : {
          "date" : "24-05-2018, 17:10",
          "location" : "40.4754764, 49.7271876"
        },
        "24-05-2018, 17:19" : {
          "date" : "24-05-2018, 17:19",
          "location" : "40.4756034, 49.7273107"
        },
        "24-05-2018, 17:54" : {
          "date" : "24-05-2018, 17:54",
          "location" : "40.4676474, 49.7263739"
        }
      },
      "30-05-2018" : {
        "30-05-2018, 16:01" : {
          "date" : "30-05-2018, 16:01",
          "location" : "40.3913295, 49.8053426"
        },
        "30-05-2018, 16:46" : {
          "date" : "30-05-2018, 16:46",
          "location" : "40.3913782, 49.8056565"
        },
        "30-05-2018, 16:53" : {
          "date" : "30-05-2018, 16:53",
          "location" : "40.3913052, 49.8056613"
        }
      }
    },
    "TBrRexvZ6mfRYxbnbkUZb0qQ4Dc2" : {
      "25-05-2018" : {
        "25-05-2018, 11:10" : {
          "date" : "25-05-2018, 11:10",
          "location" : "40.3913433, 49.8053719"
        }
      },
      "28-05-2018" : {
        "28-05-2018, 15:04" : {
          "date" : "28-05-2018, 15:04",
          "location" : "40.3912181, 49.8106382"
        },
        "28-05-2018, 15:11" : {
          "date" : "28-05-2018, 15:11",
          "location" : "40.3912181, 49.8106382"
        }
      },
      "29-05-2018" : {
        "29-05-2018, 01:55" : {
          "date" : "29-05-2018, 01:55",
          "location" : "40.3911512, 49.8050878"
        },
        "29-05-2018, 02:03" : {
          "date" : "29-05-2018, 02:03",
          "location" : "40.3911828, 49.8052935"
        }
      }
    },
    "employeeid-1243533" : {
      "12-12-2015" : {
        "12-12-2015 14:40" : {
          "location" : "12.6332,21.2975"
        },
        "12-12-2015 14:43" : {
          "location" : "12.2532,21.2675"
        }
      },
      "31-10-2012" : {
        "31-10-2012 16:23" : {
          "image" : "/static/main/assets/pages/media/profile/people19.png",
          "location" : "12.2332,21.2375"
        }
      }
    },
    "ikcJEq8k9dewDTIrBE5tgchTHq33" : {
      "02-04-2019" : {
        "02-04-2019, 18:08" : {
          "date" : "02-04-2019, 18:08",
          "location" : "40.5245741, 50.0585781"
        },
        "02-04-2019, 18:23" : {
          "date" : "02-04-2019, 18:23",
          "location" : "40.5245741, 50.0585781"
        },
        "02-04-2019, 18:38" : {
          "date" : "02-04-2019, 18:38",
          "location" : "40.5245741, 50.0585781"
        },
        "02-04-2019, 18:53" : {
          "date" : "02-04-2019, 18:53",
          "location" : "40.5245225, 50.0585465"
        },
        "02-04-2019, 19:10" : {
          "date" : "02-04-2019, 19:10",
          "location" : "40.5245225, 50.0585465"
        },
        "02-04-2019, 19:24" : {
          "date" : "02-04-2019, 19:24",
          "location" : "40.5245225, 50.0585465"
        },
        "02-04-2019, 19:39" : {
          "date" : "02-04-2019, 19:39",
          "location" : "40.5245225, 50.0585465"
        },
        "02-04-2019, 19:54" : {
          "date" : "02-04-2019, 19:54",
          "location" : "40.5245741, 50.0585781"
        },
        "02-04-2019, 20:11" : {
          "date" : "02-04-2019, 20:11",
          "location" : "40.5245741, 50.0585781"
        },
        "02-04-2019, 20:26" : {
          "date" : "02-04-2019, 20:26",
          "location" : "40.5245741, 50.0585781"
        },
        "02-04-2019, 20:34" : {
          "date" : "02-04-2019, 20:34",
          "location" : "40.5245741, 50.0585781"
        },
        "02-04-2019, 20:49" : {
          "date" : "02-04-2019, 20:49",
          "location" : "40.5245741, 50.0585781"
        },
        "02-04-2019, 21:00" : {
          "date" : "02-04-2019, 21:00",
          "location" : "40.5245741, 50.0585781"
        },
        "02-04-2019, 21:26" : {
          "date" : "02-04-2019, 21:26",
          "location" : "40.5245741, 50.0585781"
        },
        "02-04-2019, 21:41" : {
          "date" : "02-04-2019, 21:41",
          "location" : "40.5245741, 50.0585781"
        },
        "02-04-2019, 21:56" : {
          "date" : "02-04-2019, 21:56",
          "location" : "40.5245225, 50.0585465"
        },
        "02-04-2019, 22:08" : {
          "date" : "02-04-2019, 22:08",
          "location" : "40.5245225, 50.0585465"
        },
        "02-04-2019, 22:18" : {
          "date" : "02-04-2019, 22:18",
          "location" : "40.5245225, 50.0585465"
        },
        "02-04-2019, 22:28" : {
          "date" : "02-04-2019, 22:28",
          "location" : "40.5245225, 50.0585465"
        },
        "02-04-2019, 22:53" : {
          "date" : "02-04-2019, 22:53",
          "location" : "40.5245225, 50.0585465"
        },
        "02-04-2019, 23:09" : {
          "date" : "02-04-2019, 23:09",
          "location" : "40.5245225, 50.0585465"
        },
        "02-04-2019, 23:24" : {
          "date" : "02-04-2019, 23:24",
          "location" : "40.5245225, 50.0585465"
        },
        "02-04-2019, 23:45" : {
          "date" : "02-04-2019, 23:45",
          "location" : "40.5245741, 50.0585781"
        }
      },
      "02-06-2018" : {
        "02-06-2018, 14:29" : {
          "date" : "02-06-2018, 14:29",
          "location" : "40.3910964, 49.8045397"
        },
        "02-06-2018, 14:37" : {
          "date" : "02-06-2018, 14:37",
          "location" : "40.3910964, 49.8045397"
        }
      },
      "07-06-2018" : {
        "07-06-2018, 16:40" : {
          "date" : "07-06-2018, 16:40",
          "location" : "55.6978812, 12.4246624"
        },
        "07-06-2018, 16:56" : {
          "date" : "07-06-2018, 16:56",
          "location" : "55.6978816, 12.4246629"
        },
        "07-06-2018, 17:10" : {
          "date" : "07-06-2018, 17:10",
          "location" : "55.6973094, 12.4224938"
        },
        "07-06-2018, 17:25" : {
          "date" : "07-06-2018, 17:25",
          "location" : "55.6403542, 12.426493"
        },
        "07-06-2018, 17:40" : {
          "date" : "07-06-2018, 17:40",
          "location" : "55.6330489, 12.6534418"
        },
        "07-06-2018, 18:00" : {
          "date" : "07-06-2018, 18:00",
          "location" : "55.6573614, 12.6367495"
        },
        "07-06-2018, 18:11" : {
          "date" : "07-06-2018, 18:11",
          "location" : "55.6520935, 12.6331624"
        },
        "07-06-2018, 18:25" : {
          "date" : "07-06-2018, 18:25",
          "location" : "55.6598928, 12.6328719"
        },
        "07-06-2018, 18:41" : {
          "date" : "07-06-2018, 18:41",
          "location" : "55.6674395, 12.5884636"
        },
        "07-06-2018, 18:55" : {
          "date" : "07-06-2018, 18:55",
          "location" : "55.6977141, 12.5508926"
        },
        "07-06-2018, 19:11" : {
          "date" : "07-06-2018, 19:11",
          "location" : "55.6977575, 12.550921"
        },
        "07-06-2018, 19:26" : {
          "date" : "07-06-2018, 19:26",
          "location" : "55.7088226, 12.5103945"
        },
        "07-06-2018, 19:40" : {
          "date" : "07-06-2018, 19:40",
          "location" : "55.7264911, 12.475757"
        },
        "07-06-2018, 19:56" : {
          "date" : "07-06-2018, 19:56",
          "location" : "55.7259069, 12.4754844"
        },
        "07-06-2018, 20:16" : {
          "date" : "07-06-2018, 20:16",
          "location" : "55.7258949, 12.4754793"
        },
        "07-06-2018, 20:32" : {
          "date" : "07-06-2018, 20:32",
          "location" : "55.7258949, 12.4754793"
        },
        "07-06-2018, 20:46" : {
          "date" : "07-06-2018, 20:46",
          "location" : "55.7258949, 12.4754793"
        },
        "07-06-2018, 21:01" : {
          "date" : "07-06-2018, 21:01",
          "location" : "55.7259003, 12.4754611"
        },
        "07-06-2018, 21:20" : {
          "date" : "07-06-2018, 21:20",
          "location" : "55.7259003, 12.4754611"
        },
        "07-06-2018, 21:34" : {
          "date" : "07-06-2018, 21:34",
          "location" : "55.7259003, 12.4754611"
        },
        "07-06-2018, 21:46" : {
          "date" : "07-06-2018, 21:46",
          "location" : "55.7259003, 12.4754611"
        },
        "07-06-2018, 22:02" : {
          "date" : "07-06-2018, 22:02",
          "location" : "55.7259003, 12.4754611"
        },
        "07-06-2018, 22:16" : {
          "date" : "07-06-2018, 22:16",
          "location" : "55.7259003, 12.4754611"
        },
        "07-06-2018, 22:35" : {
          "date" : "07-06-2018, 22:35",
          "location" : "55.7259003, 12.4754611"
        },
        "07-06-2018, 22:50" : {
          "date" : "07-06-2018, 22:50",
          "location" : "55.7259003, 12.4754611"
        },
        "07-06-2018, 23:29" : {
          "date" : "07-06-2018, 23:29",
          "location" : "55.7259095, 12.4754822"
        },
        "07-06-2018, 23:37" : {
          "date" : "07-06-2018, 23:37",
          "location" : "55.7259005, 12.4754789"
        }
      },
      "08-06-2018" : {
        "08-06-2018, 00:00" : {
          "date" : "08-06-2018, 00:00",
          "location" : "55.7083648, 12.5268981"
        },
        "08-06-2018, 00:17" : {
          "date" : "08-06-2018, 00:17",
          "location" : "55.7083971, 12.5269323"
        },
        "08-06-2018, 00:32" : {
          "date" : "08-06-2018, 00:32",
          "location" : "55.7084034, 12.5272024"
        },
        "08-06-2018, 00:39" : {
          "date" : "08-06-2018, 00:39",
          "location" : "55.707885, 12.5232884"
        }
      }
    }
  },
  "customer_employee" : {
    "8uhnaxWZd6hUOCp6wmPKAgxUKRk2" : {
      "02-04-2019" : {
        "7l1QZyCIkFRoD6l0zbTldTi6zAx2" : {
          "admin_id" : "PjcqHjoFGrhJkrf7SwUo0j0mX3t2",
          "end_date" : "11-08-2018 19:32",
          "start_date" : "11-07-2018 19:32"
        },
        "QXjxIFw7jQTcZ3aUe5h7F1gmOvQ2" : {
          "admin_id" : "PjcqHjoFGrhJkrf7SwUo0j0mX3t2",
          "end_date" : "27-04-2019 16:55",
          "start_date" : "02-04-2019 04:15"
        }
      },
      "10-05-2019" : {
        "7l1QZyCIkFRoD6l0zbTldTi6zAx2" : {
          "admin_id" : "PjcqHjoFGrhJkrf7SwUo0j0mX3t2",
          "end_date" : "13-04-2019 17:55",
          "start_date" : "10-05-2019 11:35"
        }
      },
      "11-04-2019" : {
        "QXjxIFw7jQTcZ3aUe5h7F1gmOvQ2" : {
          "admin_id" : "PjcqHjoFGrhJkrf7SwUo0j0mX3t2",
          "end_date" : "12-04-2019 10:35",
          "start_date" : "11-04-2019 10:35"
        }
      },
      "29-03-2019" : {
        "ikcJEq8k9dewDTIrBE5tgchTHq33" : {
          "admin_id" : "PjcqHjoFGrhJkrf7SwUo0j0mX3t2",
          "end_date" : "23-04-2019 10:15",
          "start_date" : "29-03-2019 10:30"
        }
      }
    },
    "OtE7Cyk6yuh4ed27ASUm9HCCkYA2" : {
      "11-04-2019" : {
        "QXjxIFw7jQTcZ3aUe5h7F1gmOvQ2" : {
          "admin_id" : "PjcqHjoFGrhJkrf7SwUo0j0mX3t2",
          "end_date" : "04-04-2019 21:35",
          "start_date" : "11-04-2019 04:15"
        },
        "ikcJEq8k9dewDTIrBE5tgchTHq33" : {
          "admin_id" : "PjcqHjoFGrhJkrf7SwUo0j0mX3t2",
          "end_date" : "04-04-2019 21:35",
          "start_date" : "11-04-2019 04:15"
        },
        "jIQfXuQzbXdbUGudpghs5Jy2klm1" : {
          "admin_id" : "PjcqHjoFGrhJkrf7SwUo0j0mX3t2",
          "end_date" : "04-04-2019 21:35",
          "start_date" : "11-04-2019 04:15"
        }
      },
      "25-05-2018" : {
        "7l1QZyCIkFRoD6l0zbTldTi6zAx2" : {
          "admin_id" : "PjcqHjoFGrhJkrf7SwUo0j0mX3t2",
          "end_date" : "10-06-2018 22:35",
          "start_date" : "25-05-2018 22:55"
        }
      }
    }
  },
  "location" : {
    "test" : "1"
  },
  "users" : {
    "7l1QZyCIkFRoD6l0zbTldTi6zAx2" : {
      "address" : "sdsdsdsas",
      "address_document" : "https://firebasestorage.googleapis.com/v0/b/workertracker-ed2f5.appspot.com/o/users-files%2Faddress-documents%2F3efe7ab2-e8b4-4be6-8b5c-92b6a7caa903-4c2e1a4a-f83b-4d97-bbef-7b915a889aa1.jpg?alt=media&token=6b22ba5f-cf4a-4060-8f14-5de6b62ef582",
      "city" : "433434",
      "code" : "dfdfdf",
      "contract_file" : "https://firebasestorage.googleapis.com/v0/b/workertracker-ed2f5.appspot.com/o/users-files%2Fcontract-files%2F34813202-ad82-4fc2-8133-9af740366838-5a9ff678-16e9-4c6c-8d47-b00858aa5110.jpg?alt=media&token=d2736bc3-1b18-4af6-9266-c08ebc42fdf6",
      "document" : "https://firebasestorage.googleapis.com/v0/b/workertracker-ed2f5.appspot.com/o/users-files%2Fdocuments%2F0878643b-09a0-4c05-bcb3-a1d9dafeaefd-0fe758ce-ca30-4f34-b463-e1e1fba6f28c.jpg?alt=media&token=e06cc934-da71-44db-b1a5-bfc65a445b6c",
      "first_name" : "Sinan",
      "image" : "https://firebasestorage.googleapis.com/v0/b/workertracker-ed2f5.appspot.com/o/users-files%2Fphotos%2F3ea33c3b-4080-40a3-94f5-109074916860-1b2da724-c779-4157-ab23-a34da2ae7f56.jpg?alt=media&token=f7b34149-4bb2-4cc1-a35a-194008ef5ceb",
      "last_name" : "Baymammadli",
      "phone" : "dfwewewe4343",
      "post_code" : "2323e34sa",
      "status" : 1,
      "user_type" : "3"
    },
    "8uhnaxWZd6hUOCp6wmPKAgxUKRk2" : {
      "address" : "Baku, baku, baku",
      "address_document" : "https://firebasestorage.googleapis.com/v0/b/workertracker-ed2f5.appspot.com/o/users-files%2Faddress-documents%2F010f7bfe-eb38-4053-8f5e-340998e50352-a142a0ac-e06b-4480-8e5e-728d6e8caaae.xls?alt=media&token=ea2cf3ec-c5f7-4ce1-aedd-aeddb993d237",
      "city" : "Baku",
      "code" : "customer@mail.com",
      "contract_file" : "https://firebasestorage.googleapis.com/v0/b/workertracker-ed2f5.appspot.com/o/users-files%2Fcontract-files%2Fb0991c73-ad65-4999-bb6b-8a7336e74cac-9a5dfb22-d215-4a00-b9e3-8f3c10f83205.pdf?alt=media&token=4d81abb0-83ee-4c01-9541-22922d9bc09a",
      "document" : "https://firebasestorage.googleapis.com/v0/b/workertracker-ed2f5.appspot.com/o/users-files%2Fdocuments%2Fadea430c-66fd-48de-a727-b37b5ab08012-9245c2e0-48ac-4212-9314-77900c307b90.xls?alt=media&token=6fa539ce-989b-4a79-84e1-5c364932ad80",
      "first_name" : "Customer1",
      "image" : "https://firebasestorage.googleapis.com/v0/b/workertracker-ed2f5.appspot.com/o/users-files%2Fphotos%2F241d1f4d-f4b9-4bde-993c-34c32279348f-77a3067f-1bbc-45bf-b287-aa608d703ee3.jpg?alt=media&token=8ef7b83c-aec2-4b66-b16f-0f6fdbd4e391",
      "last_name" : "Customer",
      "phone" : "32323",
      "post_code" : "1028",
      "status" : 1,
      "user_type" : "2"
    },
    "CA6x2FhpFsWAf4erwXhyCZrt9LZ2" : {
      "address" : "baku",
      "city" : "Baku",
      "code" : 1234567,
      "first_name" : "Sinan",
      "last_name" : "Baymammadli",
      "post_code" : 1234545,
      "status" : 1,
      "user_type" : "1"
    },
    "OtE7Cyk6yuh4ed27ASUm9HCCkYA2" : {
      "address" : "Baku, baku, baku",
      "address_document" : "https://firebasestorage.googleapis.com/v0/b/workertracker-ed2f5.appspot.com/o/users-files%2Faddress-documents%2F155b57d0-f077-406c-a964-ce3f16f683ac-7336ca21-ae32-4388-a133-bfdebff482f3.pdf?alt=media&token=5c128312-1cca-4c83-8db0-9fd4075902f9",
      "city" : "Baku",
      "code" : "ataxanc",
      "contract_file" : "https://firebasestorage.googleapis.com/v0/b/workertracker-ed2f5.appspot.com/o/users-files%2Fcontract-files%2F06f1b32e-239d-47d2-8edf-37c2b6defbd9-7067ea60-067e-4b95-afee-f3e44e08c2d1.pdf?alt=media&token=7ef480ba-230f-4436-bd97-5f9e80f7e3e1",
      "document" : "https://firebasestorage.googleapis.com/v0/b/workertracker-ed2f5.appspot.com/o/users-files%2Fdocuments%2Fd88d0f75-6787-482c-a00b-12a40ed6fa65-ee25f741-103c-444f-8465-537f02bbd6c6.pdf?alt=media&token=222d12bf-3484-4193-af5f-76e0cf1faf1b",
      "first_name" : "Customer",
      "image" : "https://firebasestorage.googleapis.com/v0/b/workertracker-ed2f5.appspot.com/o/users-files%2Fphotos%2F355d2585-9054-4b70-875a-5cc8cfae23e1-fd8de62a-c5d8-4214-8458-365453d3dd6a.jpg?alt=media&token=7d26fc1b-3345-47cc-8294-348fa5c0803e",
      "last_name" : "Customerov",
      "phone" : "433434",
      "post_code" : "1028",
      "status" : 1,
      "user_type" : "2"
    },
    "PjcqHjoFGrhJkrf7SwUo0j0mX3t2" : {
      "address" : "dsdsdsd",
      "address_document" : "https://firebasestorage.googleapis.com/v0/b/workertracker-ed2f5.appspot.com/o/users-files%2Faddress-documents%2F8a38af82-bc25-4995-be84-bbb1e0998665-a0352dda-7b5d-4be5-913e-b30f3010b6a7.pdf?alt=media&token=3879f496-e2ea-46be-bd17-4fa11472c851",
      "city" : "Frankfurt",
      "code" : "ataxanr@gmail.com",
      "contract_file" : "https://firebasestorage.googleapis.com/v0/b/workertracker-ed2f5.appspot.com/o/users-files%2Fcontract-files%2Fac76ba59-ab75-47da-bd3f-747683683351-31b64ece-ebcf-48e9-9a2c-21c6d9a9d608.pdf?alt=media&token=360f5b3d-8101-4241-8a5a-c302ecd05f8c",
      "document" : "https://firebasestorage.googleapis.com/v0/b/workertracker-ed2f5.appspot.com/o/users-files%2Fdocuments%2F6ef3dfae-005d-43a4-99a5-61f939fd788a-db3997ee-0640-4a7e-a631-025414ffff3d.doc?alt=media&token=877c0039-2eca-430a-8343-5349f54e485e",
      "first_name" : "Ataxan",
      "image" : "https://firebasestorage.googleapis.com/v0/b/workertracker-ed2f5.appspot.com/o/users-files%2Fphotos%2F94610622-aad8-4fb6-a9a1-f2a89836c1d1-986cb067-05a0-44d8-abf6-7c9d854a566d.jpg?alt=media&token=e643c460-0891-4245-8bfe-65d3dd40a76a",
      "last_name" : "Rahimli",
      "phone" : "43434",
      "post_code" : "63477",
      "status" : 1,
      "user_type" : "1"
    },
    "QXjxIFw7jQTcZ3aUe5h7F1gmOvQ2" : {
      "address" : "Hermann-Löns Str. 9",
      "address_document" : "https://firebasestorage.googleapis.com/v0/b/workertracker-ed2f5.appspot.com/o/users-files%2Faddress-documents%2F02890d55-ec5a-4757-b4b0-c244ce9bb79a-50696acf-6375-4aef-8697-f237b0ff86dc.jpg?alt=media&token=97d14636-73cf-489b-805f-d7fde123d0c1",
      "city" : "Frankfurt",
      "code" : "user_a",
      "contract_file" : "https://firebasestorage.googleapis.com/v0/b/workertracker-ed2f5.appspot.com/o/users-files%2Fcontract-files%2Fa16a162e-ffa0-4553-91d3-5b57cc8151c6-8d6b20e9-63e2-400b-a4a5-60fb9b44db5a.jpg?alt=media&token=70e16551-7b8b-4536-9ae0-c7ff22d529e1",
      "document" : "https://firebasestorage.googleapis.com/v0/b/workertracker-ed2f5.appspot.com/o/users-files%2Fdocuments%2F49fe3bd9-0b0e-4066-8364-036157b77271-32c546cf-97df-4cc2-968e-1e3e85c184fd.jpg?alt=media&token=c6e4fb42-50c0-49a7-98ac-47c10de2d5d9",
      "first_name" : "Nizami",
      "image" : "https://firebasestorage.googleapis.com/v0/b/workertracker-ed2f5.appspot.com/o/users-files%2Fphotos%2Ff6872645-f99b-43fc-92b1-7ad3f9bff34d-58785cee-c9c9-47ab-a7dd-b7359577329d.png?alt=media&token=3df602b6-acf6-4612-ae30-2d3ef0a046ef",
      "last_name" : "Hüseynov",
      "phone" : "1784607911",
      "post_code" : "63477",
      "status" : 1,
      "user_type" : "3"
    },
    "TBrRexvZ6mfRYxbnbkUZb0qQ4Dc2" : {
      "address" : "Baku, baku, baku",
      "address_document" : "https://firebasestorage.googleapis.com/v0/b/workertracker-ed2f5.appspot.com/o/users-files%2Faddress-documents%2F81b0dec4-4cb8-4771-98df-4635cddbb05a-60cb03b4-3d02-46d6-b5bd-a751cc25ec9c.png?alt=media&token=09d9477c-fd0d-4a12-a049-00f4329e04d9",
      "city" : "Baku",
      "code" : "dsdsd",
      "contract_file" : "https://firebasestorage.googleapis.com/v0/b/workertracker-ed2f5.appspot.com/o/users-files%2Fcontract-files%2Fc1a44586-6d9c-4517-84ee-9690a24839d6-99546320-da26-4ec9-bbad-d79fbcb4b2ad.png?alt=media&token=3f4304a9-58f7-4062-bc80-bb4a91d9de70",
      "document" : "https://firebasestorage.googleapis.com/v0/b/workertracker-ed2f5.appspot.com/o/users-files%2Fdocuments%2Fa61e2f46-0b46-4425-8f2b-6ac0e4107744-9ccafdcd-185e-4a44-a10a-9a7d35a81469.jpg?alt=media&token=24f4feb0-97cf-478a-b4a7-b05b7fee1758",
      "first_name" : "Employee",
      "image" : "https://firebasestorage.googleapis.com/v0/b/workertracker-ed2f5.appspot.com/o/users-files%2Fphotos%2F6027d6af-50ca-4d40-b8d0-1cd465143332-ad1e7c9a-2ba8-4370-a549-0fe6a835a181.jpg?alt=media&token=acb13ce5-b956-4e7f-9edd-6d4eca15c2ab",
      "last_name" : "Employeev",
      "phone" : "232323",
      "post_code" : "1028",
      "status" : 1,
      "user_type" : "3"
    },
    "cVxRaX21gagoHHmlSXxZRNoSaBT2" : {
      "address" : "18 Boulden CIR STE 2, A93385 CAMEX LLC",
      "address_document" : "",
      "city" : "New Castle",
      "code" : "12345678",
      "contract_file" : "",
      "document" : "https://firebasestorage.googleapis.com/v0/b/workertracker-ed2f5.appspot.com/o/users-files%2Fdocuments%2F454922e3-6bd4-491a-b83b-d73aaeb7bba0-92f32565-301a-4ef8-99be-2cbc0823b963.pdf?alt=media&token=2bd5b01c-52c8-4226-ad2c-73245dd7d0cb",
      "first_name" : "Test admin",
      "image" : "https://firebasestorage.googleapis.com/v0/b/workertracker-ed2f5.appspot.com/o/users-files%2Fphotos%2Ff6297b4b-8715-4ef4-9bee-944d6772cf0a-0a588fd9-a4ca-4d86-99df-6d8d56f39bcb.jpg?alt=media&token=fef5fa30-023e-4405-80f7-fed99453495e",
      "last_name" : "adddddd",
      "post_code" : "3494",
      "status" : 1,
      "user_type" : "1"
    },
    "gut1ndGZaxcWbe3dsrfdHb4vOQB2" : {
      "address" : " ",
      "address_document" : "",
      "city" : " ",
      "code" : " ",
      "contract_file" : "",
      "document" : "",
      "first_name" : "Nahid",
      "image" : "",
      "last_name" : "Habibof",
      "post_code" : " ",
      "status" : 1,
      "user_type" : "3"
    },
    "hWAeIaRfXgfg0UOwCgidYMLOsjF3" : {
      "address" : "Baku, baku, baku",
      "address_document" : "https://firebasestorage.googleapis.com/v0/b/workertracker-ed2f5.appspot.com/o/users-files%2Faddress-documents%2F806d37d1-7c8d-4086-ac3f-daf233cc666e-bad9205a-f9d1-4d36-a808-2dbdfba353b2.pdf?alt=media&token=31ab89d3-c02b-4c1a-9849-7550cfaec1bf",
      "city" : "Baku",
      "code" : "admin@mail.com",
      "contract_file" : "https://firebasestorage.googleapis.com/v0/b/workertracker-ed2f5.appspot.com/o/users-files%2Fcontract-files%2F3b070766-dda4-488e-b478-4b9d60006fa6-ef3629f2-6433-4f0d-b8b1-1fc1d1d1d058.pdf?alt=media&token=41941759-73e2-439b-a223-e9c450608a0b",
      "document" : "https://firebasestorage.googleapis.com/v0/b/workertracker-ed2f5.appspot.com/o/users-files%2Fdocuments%2Fc204ceb0-132c-4f23-8183-43cd14d966c8-f1674cfd-fe74-4f4f-8614-255f580933e8.pdf?alt=media&token=d90758f1-48a1-4525-b6eb-3c218245b1a4",
      "first_name" : "Admin",
      "image" : "https://firebasestorage.googleapis.com/v0/b/workertracker-ed2f5.appspot.com/o/users-files%2Fphotos%2Faabeb7b3-8227-42f0-9102-fe8399662bf0-8b378020-a221-405b-9b52-5dbf72202e8d.jpg?alt=media&token=372dbbc1-cd6a-43f5-a597-72f5779e88a1",
      "last_name" : "Admin",
      "phone" : "3232323",
      "post_code" : "1028",
      "status" : 1,
      "user_type" : "1"
    },
    "ikcJEq8k9dewDTIrBE5tgchTHq33" : {
      "address" : "Hermann-erer. 2",
      "address_document" : "https://firebasestorage.googleapis.com/v0/b/workertracker-ed2f5.appspot.com/o/users-files%2Faddress-documents%2F036e5624-fc6b-4103-8009-ad754174e1db-72d55f75-0993-49fc-a7ea-fc1874dcedf4.xls?alt=media&token=378885e2-9677-4a43-b24f-1fb48546651a",
      "city" : "Frankfurt",
      "code" : "employee@mail.com",
      "contract_file" : "https://firebasestorage.googleapis.com/v0/b/workertracker-ed2f5.appspot.com/o/users-files%2Fcontract-files%2Fc9aba913-fac0-4b21-93cb-fe225b289951-d71ed10d-c48a-49f1-ad17-e30e6a2bd310.xls?alt=media&token=a3b10bbb-fbfb-4718-b6cf-d7ed346b52a0",
      "document" : "https://firebasestorage.googleapis.com/v0/b/workertracker-ed2f5.appspot.com/o/users-files%2Fdocuments%2F72bc9220-158b-4e9f-83a4-9cd9fc9cf57f-e0027872-53f0-43fa-8586-de79c2c9a214.jpg?alt=media&token=eba37a51-29aa-43d3-adf7-43696914e101",
      "first_name" : "Employee",
      "image" : "https://firebasestorage.googleapis.com/v0/b/workertracker-ed2f5.appspot.com/o/users-files%2Fphotos%2F6898be7b-1ff9-4b6d-b711-dfe4029ab1fa-7317c83b-4aad-44d5-9a3b-e6cf2db5547e.jpg?alt=media&token=f9678579-d9d8-40bd-96c1-ca781a7bc78f",
      "last_name" : "Employee",
      "phone" : "23232323",
      "post_code" : "63477",
      "status" : 1,
      "user_type" : "3"
    },
    "jIQfXuQzbXdbUGudpghs5Jy2klm1" : {
      "address" : " ",
      "address_document" : "",
      "city" : " ",
      "code" : "demo@demo.com",
      "contract_file" : "",
      "document" : "",
      "first_name" : "App",
      "image" : "",
      "last_name" : "Store",
      "post_code" : " ",
      "status" : 1,
      "user_type" : "3"
    }
  }
}
